[
[0, 0,	0,	0,	0,	0,	0,	0,	0,	80,	26,	33,	60],
[0, 0,	0,	0,	0,	0,	0,	0,	0,	80,	29,	32,	60],
[0, 0,	0,	0,	0,	0,	0,	0,	0,	80,	31,	32,	61],
[0, 0,	0,	0,	0,	0,	0,	0,	0,	80,	36,	32,	61],
[0, 0,	0,	0,	0,	0,	0,	0,	0,	80,	28,	31,	62],
[0, 0,	0,	0,	0,	0,	0,	0,	0,	80,	29,	31,	62],
[0, 0,	0,	0,	0,	0,	0,	0,	0,	79,	30,	31,	63],
[0, 0,	0,	0,	0,	0,	0,	0,	0,	80,	30,	30,	63],
[0, 0,	0,	0,	0,	0,	0,	0,	0,	80,	31,	30,	64],
[80,80, 80, 80,	80,	80,	79,	80,	80,	0,	0,	0,	0],
[26,29,	31,	36,	28,	29,	30,	30,	31,	0,	0,	0,	0],
[33,32,	32,	32,	31,	31,	31,	30,	30,	0,	0,	0,	0],
[60,60,	61,	61,	62,	62,	63,	63,	64,	0,	0,	0,	0]
]
